{
  "images": [
    {
      "idiom": "universal"
    },
    {
      "scale": "1x",
      "idiom": "universal",
      "filename": "Group 624.png"
    },
    {
      "scale": "2x",
      "idiom": "universal",
      "filename": "Group 624@2x.png"
    },
    {
      "scale": "3x",
      "idiom": "universal",
      "filename": "Group 624@3x.png"
    },
    {
      "idiom": "iphone"
    },
    {
      "scale": "1x",
      "idiom": "iphone"
    },
    {
      "scale": "2x",
      "idiom": "iphone"
    },
    {
      "scale": "2x",
      "idiom": "iphone",
      "subtype": "retina4"
    },
    {
      "scale": "3x",
      "idiom": "iphone"
    },
    {
      "idiom": "ipad"
    },
    {
      "scale": "1x",
      "idiom": "ipad"
    },
    {
      "scale": "2x",
      "idiom": "ipad"
    }
  ],
  "properties": {
    "template-rendering-intent": ""
  },
  "info": {
    "version": 1,
    "author": "xcode"
  }
}